%YAML 1.1
%TAG !u! tag:unity3d.com,2011:
--- !u!1045 &1
EditorBuildSettings:
  m_ObjectHideFlags: 0
  serializedVersion: 2
  m_Scenes:
  - enabled: 0
    path: 
    guid: 00000000000000000000000000000000
  - enabled: 1
    path: Assets/Scenes/World 1.unity
    guid: e6b66f44908f7d94aad33d757aebc23d
  - enabled: 1
    path: Assets/Scenes/World 2.unity
    guid: 4ff976976691fce4d9ec8fbec4746427
  - enabled: 1
    path: Assets/Scenes/World 3.unity
    guid: 2b25e49989408ca4c9d3f238233568ad
  m_configObjects: {}
